./1000 Series:
./1000 Series/1001_L1,L2,L3_Healthy_ZA_Microloading:
./1000 Series/1001_L1,L2,L3_Healthy_ZA_Microloading/0um:
./1000 Series/1001_L1,L2,L3_Healthy_ZA_Microloading/1500um:
./1000 Series/1001_L1,L2,L3_Healthy_ZA_Microloading/Failure:
./1000 Series/1002_L1,L2,L3_Healthy_ZA_Microloading:
./1000 Series/1002_L1,L2,L3_Healthy_ZA_Microloading/0um:
./1000 Series/1002_L1,L2,L3_Healthy_ZA_Microloading/1500um:
./1000 Series/1002_L1,L2,L3_Healthy_ZA_Microloading/Failure:
./1000 Series/1003_L1,L2,L3_Healthy_ZA_Microloading:
./1000 Series/1003_L1,L2,L3_Healthy_ZA_Microloading/0um:
./1000 Series/1003_L1,L2,L3_Healthy_ZA_Microloading/1500um:
./1000 Series/1003_L1,L2,L3_Healthy_ZA_Microloading/Failure:
./1000 Series/1004_L1,L2,L3_Healthy_ZA_Microloading:
./1000 Series/1004_L1,L2,L3_Healthy_ZA_Microloading/0um:
./1000 Series/1004_L1,L2,L3_Healthy_ZA_Microloading/1500um:
./1000 Series/1004_L1,L2,L3_Healthy_ZA_Microloading/Failure:
./1000 Series/1021_L1,L2,L3_HeLa_Untreated_Microloading:
./1000 Series/1021_L1,L2,L3_HeLa_Untreated_Microloading/0um:
./1000 Series/1021_L1,L2,L3_HeLa_Untreated_Microloading/1500um:
./1000 Series/1021_L1,L2,L3_HeLa_Untreated_Microloading/Failure:
./1000 Series/1022_L1,L2,L3_HeLa_Untreated_Microloading:
./1000 Series/1022_L1,L2,L3_HeLa_Untreated_Microloading/0um:
./1000 Series/1022_L1,L2,L3_HeLa_Untreated_Microloading/1500um:
./1000 Series/1022_L1,L2,L3_HeLa_Untreated_Microloading/Failure:
./1000 Series/1023_L1,L2,L3_HeLa_ZA_Microloading:
./1000 Series/1023_L1,L2,L3_HeLa_ZA_Microloading/0um:
./1000 Series/1023_L1,L2,L3_HeLa_ZA_Microloading/1500um:
./1000 Series/1023_L1,L2,L3_HeLa_ZA_Microloading/Failure:
./1000 Series/1026_L1,L2,L3_HeLa_ZA_Microloading:
./1000 Series/1026_L1,L2,L3_HeLa_ZA_Microloading/0um:
./1000 Series/1026_L1,L2,L3_HeLa_ZA_Microloading/1500um:
./1000 Series/1026_L1,L2,L3_HeLa_ZA_Microloading/Failure:
./1000 Series/1033_L1,L2,L3_DEAD_Untreated_Microloading:
./1000 Series/1033_L1,L2,L3_DEAD_Untreated_Microloading/0um:
./1000 Series/1033_L1,L2,L3_DEAD_Untreated_Microloading/3000um:
./1000 Series/1033_L1,L2,L3_DEAD_Untreated_Microloading/4500um:
./1000 Series/1034_L1,L2,L3_HeLa_Untreated_Microloading:
./1000 Series/1034_L1,L2,L3_HeLa_Untreated_Microloading/0um:
./1000 Series/1034_L1,L2,L3_HeLa_Untreated_Microloading/1500um:
./1000 Series/1034_L1,L2,L3_HeLa_Untreated_Microloading/Failure:
./1000 Series/1035_L1,L2,L3_HeLa_Untreated_Microloading:
./1000 Series/1035_L1,L2,L3_HeLa_Untreated_Microloading/0um:
./1000 Series/1035_L1,L2,L3_HeLa_Untreated_Microloading/1500um:
./1000 Series/1035_L1,L2,L3_HeLa_Untreated_Microloading/Failure:
./1000 Series/1036_L1,L2,L3_HeLa_ZA_Microloading:
./1000 Series/1036_L1,L2,L3_HeLa_ZA_Microloading/0um:
./1000 Series/1036_L1,L2,L3_HeLa_ZA_Microloading/1500um:
./1000 Series/1036_L1,L2,L3_HeLa_ZA_Microloading/Failure:
./1000 Series/1037_L1,L2,L3_HeLa_ZA_Microloading:
./1000 Series/1037_L1,L2,L3_HeLa_ZA_Microloading/0um:
./1000 Series/1037_L1,L2,L3_HeLa_ZA_Microloading/1500um:
./1000 Series/1037_L1,L2,L3_HeLa_ZA_Microloading/Failure:
./1000 Series/1038_L1,L2,L3_HeLa_ZA_Microloading:
./1000 Series/1038_L1,L2,L3_HeLa_ZA_Microloading/0um:
./1000 Series/1038_L1,L2,L3_HeLa_ZA_Microloading/1500um:
./1000 Series/1038_L1,L2,L3_HeLa_ZA_Microloading/Failure:
./1000 Series/1040_L1,L2,L3_HeLa_DTX_Microloading:
./1000 Series/1040_L1,L2,L3_HeLa_DTX_Microloading/0um:
./1000 Series/1040_L1,L2,L3_HeLa_DTX_Microloading/1500um:
./1000 Series/1040_L1,L2,L3_HeLa_DTX_Microloading/Failure:
./1000 Series/1041_L1,L2,L3_HeLa_DTX_Microloading:
./1000 Series/1041_L1,L2,L3_HeLa_DTX_Microloading/0um:
./1000 Series/1041_L1,L2,L3_HeLa_DTX_Microloading/1500um:
./1000 Series/1041_L1,L2,L3_HeLa_DTX_Microloading/Failure:
./1000 Series/1042_L1,L2,L3_HeLa_DTX_Microloading:
./1000 Series/1042_L1,L2,L3_HeLa_DTX_Microloading/1500um:
./1000 Series/1042_L1,L2,L3_HeLa_DTX_Microloading/Failure:
./1000 Series/1042_L1,L2,L3_HeLa_DTX_Microloading/Unloaded:
./1000 Series/1043_L1,L2,L3_HeLa_DTX_Microloading:
./1000 Series/1043_L1,L2,L3_HeLa_DTX_Microloading/1500um:
./1000 Series/1043_L1,L2,L3_HeLa_DTX_Microloading/Failure:
./1000 Series/1043_L1,L2,L3_HeLa_DTX_Microloading/Unloaded:
./1000 Series/1044_L1,L2,L3_HeLa_DTX_Microloading:
./1000 Series/1044_L1,L2,L3_HeLa_DTX_Microloading/0um:
./1000 Series/1044_L1,L2,L3_HeLa_DTX_Microloading/1500um:
./1000 Series/1044_L1,L2,L3_HeLa_DTX_Microloading/Failure:
./1000 Series/1051_L1,L2,L3_Healthy_Untreated_Microloading:
./1000 Series/1051_L1,L2,L3_Healthy_Untreated_Microloading/0um:
./1000 Series/1051_L1,L2,L3_Healthy_Untreated_Microloading/1500um:
./1000 Series/1051_L1,L2,L3_Healthy_Untreated_Microloading/Failure:
./1000 Series/1052_L1,L2,L3_Healthy_Untreated_Microloading:
./1000 Series/1052_L1,L2,L3_Healthy_Untreated_Microloading/0um:
./1000 Series/1052_L1,L2,L3_Healthy_Untreated_Microloading/1500um:
./1000 Series/1052_L1,L2,L3_Healthy_Untreated_Microloading/Failure:
./1000 Series/1053_L1,L2,L3_Healthy_Untreated_Microloading:
./1000 Series/1053_L1,L2,L3_Healthy_Untreated_Microloading/0um:
./1000 Series/1053_L1,L2,L3_Healthy_Untreated_Microloading/1500um:
./1000 Series/1053_L1,L2,L3_Healthy_Untreated_Microloading/Failure:
./1000 Series/1070_L1,L2,L3_Healthy_DTX_Microloading:
./1000 Series/1070_L1,L2,L3_Healthy_DTX_Microloading/0um:
./1000 Series/1070_L1,L2,L3_Healthy_DTX_Microloading/1500um:
./1000 Series/1070_L1,L2,L3_Healthy_DTX_Microloading/Failure:
./1000 Series/1071_L1,L2,L3_Healthy_DTX_Microloading:
./1000 Series/1071_L1,L2,L3_Healthy_DTX_Microloading/0um:
./1000 Series/1071_L1,L2,L3_Healthy_DTX_Microloading/1500um:
./1000 Series/1071_L1,L2,L3_Healthy_DTX_Microloading/Failure:
./1000 Series/1072_L1,L2,L3_Healthy_DTX_Microloading:
./1000 Series/1072_L1,L2,L3_Healthy_DTX_Microloading/0um:
./1000 Series/1072_L1,L2,L3_Healthy_DTX_Microloading/1500um:
./1000 Series/1072_L1,L2,L3_Healthy_DTX_Microloading/Failure:
./1000 Series/1073_L1,L2,L3_Healthy_DTX_Microloading:
./1000 Series/1073_L1,L2,L3_Healthy_DTX_Microloading/0um:
./1000 Series/1073_L1,L2,L3_Healthy_DTX_Microloading/1500um:
./1000 Series/1073_L1,L2,L3_Healthy_DTX_Microloading/Failure:
./1000 Series/1074_L1,L2,L3_Healthy_DTX_Microloading:
./1000 Series/1074_L1,L2,L3_Healthy_DTX_Microloading/0um:
./1000 Series/1074_L1,L2,L3_Healthy_DTX_Microloading/1500um:
./1000 Series/1074_L1,L2,L3_Healthy_DTX_Microloading/Failure:
./1100 Series:
./1100 Series/1101_L1,L2,L3_HeLa_RT_Microloading:
./1100 Series/1101_L1,L2,L3_HeLa_RT_Microloading/0um:
./1100 Series/1101_L1,L2,L3_HeLa_RT_Microloading/1500um:
./1100 Series/1101_L1,L2,L3_HeLa_RT_Microloading/Failure:
./1100 Series/1103_L1,L2,L3_HeLa_RT_Microloading:
./1100 Series/1103_L1,L2,L3_HeLa_RT_Microloading/0um:
./1100 Series/1103_L1,L2,L3_HeLa_RT_Microloading/1500um:
./1100 Series/1103_L1,L2,L3_HeLa_RT_Microloading/Failure:
./1100 Series/1104_L1,L2,L3_HeLa_RT_Microloading:
./1100 Series/1104_L1,L2,L3_HeLa_RT_Microloading/0um:
./1100 Series/1104_L1,L2,L3_HeLa_RT_Microloading/1500um:
./1100 Series/1104_L1,L2,L3_HeLa_RT_Microloading/Failure:
./1100 Series/1105_L1,L2,L3_HeLa_Untreated_Microloading:
./1100 Series/1105_L1,L2,L3_HeLa_Untreated_Microloading/0um:
./1100 Series/1105_L1,L2,L3_HeLa_Untreated_Microloading/1500um:
./1100 Series/1105_L1,L2,L3_HeLa_Untreated_Microloading/Failure:
./1100 Series/1106_L1,L2,L3_HeLa_Untreated_Microloading:
./1100 Series/1106_L1,L2,L3_HeLa_Untreated_Microloading/0um:
./1100 Series/1106_L1,L2,L3_HeLa_Untreated_Microloading/1500um:
./1100 Series/1106_L1,L2,L3_HeLa_Untreated_Microloading/Failure:
./700 Series:
./700 Series/701_L1,L2,L3_HELA_Untreated_Microloading:
./700 Series/701_L1,L2,L3_HELA_Untreated_Microloading/0 um:
./700 Series/701_L1,L2,L3_HELA_Untreated_Microloading/1000 um:
./700 Series/701_L1,L2,L3_HELA_Untreated_Microloading/1500 um:
./700 Series/701_L1,L2,L3_HELA_Untreated_Microloading/2000 um:
./700 Series/701_L1,L2,L3_HELA_Untreated_Microloading/2500 um:
./700 Series/701_L1,L2,L3_HELA_Untreated_Microloading/3000 um:
./700 Series/701_L1,L2,L3_HELA_Untreated_Microloading/3500 um:
./700 Series/701_L1,L2,L3_HELA_Untreated_Microloading/4000 um:
./700 Series/702_L1,L2,L3_HELA_Untreated_Microloading:
./700 Series/702_L1,L2,L3_HELA_Untreated_Microloading/0 um:
./700 Series/702_L1,L2,L3_HELA_Untreated_Microloading/1000 um:
./700 Series/702_L1,L2,L3_HELA_Untreated_Microloading/1500 um:
./700 Series/702_L1,L2,L3_HELA_Untreated_Microloading/2000 um:
./700 Series/702_L1,L2,L3_HELA_Untreated_Microloading/2500 um:
./700 Series/702_L1,L2,L3_HELA_Untreated_Microloading/3000 um:
./700 Series/702_L1,L2,L3_HELA_Untreated_Microloading/3500 um:
./700 Series/702_L1,L2,L3_HELA_Untreated_Microloading/4000 um:
./700 Series/703_L1,L2,L3_HELA_Untreated_Microloading:
./700 Series/703_L1,L2,L3_HELA_Untreated_Microloading/0 um:
./700 Series/703_L1,L2,L3_HELA_Untreated_Microloading/1000 um:
./700 Series/703_L1,L2,L3_HELA_Untreated_Microloading/1500 um:
./700 Series/703_L1,L2,L3_HELA_Untreated_Microloading/2000 um:
./700 Series/703_L1,L2,L3_HELA_Untreated_Microloading/2500 um:
./700 Series/703_L1,L2,L3_HELA_Untreated_Microloading/3000 um:
./700 Series/703_L1,L2,L3_HELA_Untreated_Microloading/3500 um:
./700 Series/703_L1,L2,L3_HELA_Untreated_Microloading/4000 um:
./700 Series/705_L1,L2,L3_HELA_Untreated_Microloading:
./700 Series/705_L1,L2,L3_HELA_Untreated_Microloading/0 um:
./700 Series/705_L1,L2,L3_HELA_Untreated_Microloading/1000 um:
./700 Series/705_L1,L2,L3_HELA_Untreated_Microloading/1500 um:
./700 Series/705_L1,L2,L3_HELA_Untreated_Microloading/2000 um:
./700 Series/705_L1,L2,L3_HELA_Untreated_Microloading/2500 um:
./700 Series/705_L1,L2,L3_HELA_Untreated_Microloading/3000 um:
./700 Series/705_L1,L2,L3_HELA_Untreated_Microloading/3500 um:
./700 Series/705_L1,L2,L3_HELA_Untreated_Microloading/4000 um:
./700 Series/706_L1,L2,L3_HELA_Untreated_Microloading:
./700 Series/706_L1,L2,L3_HELA_Untreated_Microloading/0 um:
./700 Series/706_L1,L2,L3_HELA_Untreated_Microloading/1000 um:
./700 Series/706_L1,L2,L3_HELA_Untreated_Microloading/1500 um:
./700 Series/706_L1,L2,L3_HELA_Untreated_Microloading/2000 um:
./700 Series/706_L1,L2,L3_HELA_Untreated_Microloading/2500 um:
./700 Series/706_L1,L2,L3_HELA_Untreated_Microloading/3000 um:
./700 Series/706_L1,L2,L3_HELA_Untreated_Microloading/3500 um:
./700 Series/706_L1,L2,L3_HELA_Untreated_Microloading/4000 um:
./700 Series/707_L1,L2,L3_ACE1_Untreated_Microloading:
./700 Series/707_L1,L2,L3_ACE1_Untreated_Microloading/0 um:
./700 Series/707_L1,L2,L3_ACE1_Untreated_Microloading/1000 um:
./700 Series/707_L1,L2,L3_ACE1_Untreated_Microloading/1500 um:
./700 Series/707_L1,L2,L3_ACE1_Untreated_Microloading/2000 um:
./700 Series/707_L1,L2,L3_ACE1_Untreated_Microloading/2500 um:
./700 Series/707_L1,L2,L3_ACE1_Untreated_Microloading/3000 um:
./700 Series/707_L1,L2,L3_ACE1_Untreated_Microloading/3500 um:
./700 Series/707_L1,L2,L3_ACE1_Untreated_Microloading/4000 um:
./700 Series/710_L1,L2,L3_ACE1_Untreated_Microloading:
./700 Series/710_L1,L2,L3_ACE1_Untreated_Microloading/0 um:
./700 Series/710_L1,L2,L3_ACE1_Untreated_Microloading/1000 um:
./700 Series/710_L1,L2,L3_ACE1_Untreated_Microloading/1500 um:
./700 Series/710_L1,L2,L3_ACE1_Untreated_Microloading/2000 um:
./700 Series/710_L1,L2,L3_ACE1_Untreated_Microloading/2500 um:
./700 Series/710_L1,L2,L3_ACE1_Untreated_Microloading/3000 um:
./700 Series/710_L1,L2,L3_ACE1_Untreated_Microloading/3500 um:
./700 Series/710_L1,L2,L3_ACE1_Untreated_Microloading/4000 um:
./700 Series/711_L1,L2,L3_ACE1_Untreated_Microloading:
./700 Series/711_L1,L2,L3_ACE1_Untreated_Microloading/0 um:
./700 Series/711_L1,L2,L3_ACE1_Untreated_Microloading/1000 um:
./700 Series/711_L1,L2,L3_ACE1_Untreated_Microloading/1500 um:
./700 Series/711_L1,L2,L3_ACE1_Untreated_Microloading/2000 um:
./700 Series/711_L1,L2,L3_ACE1_Untreated_Microloading/2500 um:
./700 Series/711_L1,L2,L3_ACE1_Untreated_Microloading/3000 um:
./700 Series/711_L1,L2,L3_ACE1_Untreated_Microloading/3500 um:
./700 Series/711_L1,L2,L3_ACE1_Untreated_Microloading/4000 um:
./700 Series/712_L1,L2,L3_ACE1_Untreated_Microloading:
./700 Series/712_L1,L2,L3_ACE1_Untreated_Microloading/0 um:
./700 Series/712_L1,L2,L3_ACE1_Untreated_Microloading/1000 um:
./700 Series/712_L1,L2,L3_ACE1_Untreated_Microloading/1500 um:
./700 Series/712_L1,L2,L3_ACE1_Untreated_Microloading/2000 um:
./700 Series/712_L1,L2,L3_ACE1_Untreated_Microloading/2500 um:
./700 Series/712_L1,L2,L3_ACE1_Untreated_Microloading/3000 um:
./700 Series/712_L1,L2,L3_ACE1_Untreated_Microloading/3500 um:
./700 Series/712_L1,L2,L3_ACE1_Untreated_Microloading/4000 um:
./700 Series/713_L1,L2,L3_Healthy_Untreated_Microloading:
./700 Series/713_L1,L2,L3_Healthy_Untreated_Microloading/0 um:
./700 Series/713_L1,L2,L3_Healthy_Untreated_Microloading/1000 um:
./700 Series/713_L1,L2,L3_Healthy_Untreated_Microloading/1500 um:
./700 Series/713_L1,L2,L3_Healthy_Untreated_Microloading/2000 um:
./700 Series/713_L1,L2,L3_Healthy_Untreated_Microloading/2500 um:
./700 Series/713_L1,L2,L3_Healthy_Untreated_Microloading/3000 um:
./700 Series/713_L1,L2,L3_Healthy_Untreated_Microloading/3500 um:
./700 Series/713_L1,L2,L3_Healthy_Untreated_Microloading/4000 um:
./700 Series/713_L1,L2,L3_Healthy_Untreated_Microloading/4500 um:
./700 Series/714_L1,L2,L3_Healthy_Untreated_Microloading:
./700 Series/714_L1,L2,L3_Healthy_Untreated_Microloading/0 um:
./700 Series/714_L1,L2,L3_Healthy_Untreated_Microloading/1000 um:
./700 Series/714_L1,L2,L3_Healthy_Untreated_Microloading/1500 um:
./700 Series/714_L1,L2,L3_Healthy_Untreated_Microloading/2000 um:
./700 Series/714_L1,L2,L3_Healthy_Untreated_Microloading/2500 um:
./700 Series/714_L1,L2,L3_Healthy_Untreated_Microloading/3000 um:
./700 Series/714_L1,L2,L3_Healthy_Untreated_Microloading/3500 um:
./700 Series/714_L1,L2,L3_Healthy_Untreated_Microloading/4000 um:
./700 Series/715_L1,L2,L3_Healthy_Untreated_Microloading:
./700 Series/715_L1,L2,L3_Healthy_Untreated_Microloading/0 um:
./700 Series/715_L1,L2,L3_Healthy_Untreated_Microloading/1000 um:
./700 Series/715_L1,L2,L3_Healthy_Untreated_Microloading/1500 um:
./700 Series/715_L1,L2,L3_Healthy_Untreated_Microloading/2000 um:
./700 Series/715_L1,L2,L3_Healthy_Untreated_Microloading/2500 um:
./700 Series/715_L1,L2,L3_Healthy_Untreated_Microloading/3000 um:
./700 Series/715_L1,L2,L3_Healthy_Untreated_Microloading/3500 um:
./700 Series/715_L1,L2,L3_Healthy_Untreated_Microloading/4000 um:
./700 Series/716_L1,L2,L3_Healthy_Untreated_Microloading:
./700 Series/716_L1,L2,L3_Healthy_Untreated_Microloading/0 um:
./700 Series/716_L1,L2,L3_Healthy_Untreated_Microloading/1000 um:
./700 Series/716_L1,L2,L3_Healthy_Untreated_Microloading/1500 um:
./700 Series/716_L1,L2,L3_Healthy_Untreated_Microloading/2000 um:
./700 Series/716_L1,L2,L3_Healthy_Untreated_Microloading/2500 um:
./700 Series/716_L1,L2,L3_Healthy_Untreated_Microloading/3000 um:
./700 Series/716_L1,L2,L3_Healthy_Untreated_Microloading/3500 um:
./700 Series/716_L1,L2,L3_Healthy_Untreated_Microloading/4000 um:
./700 Series/717_L1,L2,L3_Healthy_Untreated_Microloading:
./700 Series/717_L1,L2,L3_Healthy_Untreated_Microloading/0 um:
./700 Series/717_L1,L2,L3_Healthy_Untreated_Microloading/1000 um:
./700 Series/717_L1,L2,L3_Healthy_Untreated_Microloading/1500 um:
./700 Series/717_L1,L2,L3_Healthy_Untreated_Microloading/2000 um:
./700 Series/717_L1,L2,L3_Healthy_Untreated_Microloading/2500 um:
./700 Series/717_L1,L2,L3_Healthy_Untreated_Microloading/3000 um:
./700 Series/717_L1,L2,L3_Healthy_Untreated_Microloading/3500 um:
./700 Series/717_L1,L2,L3_Healthy_Untreated_Microloading/4000 um:
./700 Series/718_L1,L2,L3_Healthy_Untreated_Microloading:
./700 Series/718_L1,L2,L3_Healthy_Untreated_Microloading/0 um:
./700 Series/718_L1,L2,L3_Healthy_Untreated_Microloading/1000 um:
./700 Series/718_L1,L2,L3_Healthy_Untreated_Microloading/1500 um:
./700 Series/718_L1,L2,L3_Healthy_Untreated_Microloading/2000 um:
./700 Series/718_L1,L2,L3_Healthy_Untreated_Microloading/2500 um:
./700 Series/718_L1,L2,L3_Healthy_Untreated_Microloading/3000 um:
./700 Series/718_L1,L2,L3_Healthy_Untreated_Microloading/3500 um:
./700 Series/718_L1,L2,L3_Healthy_Untreated_Microloading/4000 um:
./700 Series/719_L1,L2,L3_HELA_Untreated_Microloading:
./700 Series/719_L1,L2,L3_HELA_Untreated_Microloading/0 um:
./700 Series/719_L1,L2,L3_HELA_Untreated_Microloading/1000 um:
./700 Series/719_L1,L2,L3_HELA_Untreated_Microloading/1500 um:
./700 Series/719_L1,L2,L3_HELA_Untreated_Microloading/2000 um:
./700 Series/719_L1,L2,L3_HELA_Untreated_Microloading/2500 um:
./700 Series/719_L1,L2,L3_HELA_Untreated_Microloading/3000 um:
./700 Series/719_L1,L2,L3_HELA_Untreated_Microloading/3500 um:
./700 Series/719_L1,L2,L3_HELA_Untreated_Microloading/4000 um:
./700 Series/720_L1,L2,L3_HELA_Untreated_Microloading:
./700 Series/720_L1,L2,L3_HELA_Untreated_Microloading/0 um:
./700 Series/720_L1,L2,L3_HELA_Untreated_Microloading/1000 um:
./700 Series/720_L1,L2,L3_HELA_Untreated_Microloading/1500 um:
./700 Series/720_L1,L2,L3_HELA_Untreated_Microloading/2000 um:
./700 Series/720_L1,L2,L3_HELA_Untreated_Microloading/2500 um:
./700 Series/720_L1,L2,L3_HELA_Untreated_Microloading/3000 um:
./700 Series/720_L1,L2,L3_HELA_Untreated_Microloading/3500 um:
./700 Series/720_L1,L2,L3_HELA_Untreated_Microloading/4000 um:
./700 Series/721_L1,L2,L3_HELA_Untreated_Microloading:
./700 Series/721_L1,L2,L3_HELA_Untreated_Microloading/0 um:
./700 Series/721_L1,L2,L3_HELA_Untreated_Microloading/1000 um:
./700 Series/721_L1,L2,L3_HELA_Untreated_Microloading/1500 um:
./700 Series/721_L1,L2,L3_HELA_Untreated_Microloading/2000 um:
./700 Series/721_L1,L2,L3_HELA_Untreated_Microloading/2500 um:
./700 Series/721_L1,L2,L3_HELA_Untreated_Microloading/3000 um:
./700 Series/721_L1,L2,L3_HELA_Untreated_Microloading/3500 um:
./700 Series/721_L1,L2,L3_HELA_Untreated_Microloading/4000 um:
./700 Series/722_L1,L2,L3_HELA_Untreated_Microloading:
./700 Series/722_L1,L2,L3_HELA_Untreated_Microloading/0 um:
./700 Series/722_L1,L2,L3_HELA_Untreated_Microloading/1000 um:
./700 Series/722_L1,L2,L3_HELA_Untreated_Microloading/1500 um:
./700 Series/722_L1,L2,L3_HELA_Untreated_Microloading/2000 um:
./700 Series/722_L1,L2,L3_HELA_Untreated_Microloading/2500 um:
./700 Series/722_L1,L2,L3_HELA_Untreated_Microloading/3000 um:
./700 Series/722_L1,L2,L3_HELA_Untreated_Microloading/3500 um:
./700 Series/722_L1,L2,L3_HELA_Untreated_Microloading/4000 um:
./700 Series/725_L1,L2,L3_ACE1_Untreated_Microloading:
./700 Series/725_L1,L2,L3_ACE1_Untreated_Microloading/0 um:
./700 Series/725_L1,L2,L3_ACE1_Untreated_Microloading/1000 um:
./700 Series/725_L1,L2,L3_ACE1_Untreated_Microloading/1500 um:
./700 Series/725_L1,L2,L3_ACE1_Untreated_Microloading/2000 um:
./700 Series/725_L1,L2,L3_ACE1_Untreated_Microloading/2500 um:
./700 Series/725_L1,L2,L3_ACE1_Untreated_Microloading/3000 um:
./700 Series/725_L1,L2,L3_ACE1_Untreated_Microloading/3500 um:
./700 Series/725_L1,L2,L3_ACE1_Untreated_Microloading/4000 um:
./700 Series/727_L1,L2,L3_ACE1_Untreated_Microloading:
./700 Series/727_L1,L2,L3_ACE1_Untreated_Microloading/0 um:
./700 Series/727_L1,L2,L3_ACE1_Untreated_Microloading/1000 um:
./700 Series/727_L1,L2,L3_ACE1_Untreated_Microloading/1500 um:
./700 Series/727_L1,L2,L3_ACE1_Untreated_Microloading/2000 um:
./700 Series/727_L1,L2,L3_ACE1_Untreated_Microloading/2500 um:
./700 Series/727_L1,L2,L3_ACE1_Untreated_Microloading/3000 um:
./700 Series/727_L1,L2,L3_ACE1_Untreated_Microloading/3500 um:
./700 Series/727_L1,L2,L3_ACE1_Untreated_Microloading/4000 um:
./700 Series/729_L1,L2,L3_ACE1_Untreated_Microloading:
./700 Series/729_L1,L2,L3_ACE1_Untreated_Microloading/0 um:
./700 Series/729_L1,L2,L3_ACE1_Untreated_Microloading/1000 um:
./700 Series/729_L1,L2,L3_ACE1_Untreated_Microloading/1500 um:
./700 Series/729_L1,L2,L3_ACE1_Untreated_Microloading/2000 um:
./700 Series/729_L1,L2,L3_ACE1_Untreated_Microloading/2500 um:
./700 Series/729_L1,L2,L3_ACE1_Untreated_Microloading/3000 um:
./700 Series/729_L1,L2,L3_ACE1_Untreated_Microloading/3500 um:
./700 Series/729_L1,L2,L3_ACE1_Untreated_Microloading/4000 um:
./700 Series/731_L1,L2,L3_Healthy_Untreated_Microloading:
./700 Series/731_L1,L2,L3_Healthy_Untreated_Microloading/0 um:
./700 Series/731_L1,L2,L3_Healthy_Untreated_Microloading/1000 um:
./700 Series/731_L1,L2,L3_Healthy_Untreated_Microloading/1500 um:
./700 Series/731_L1,L2,L3_Healthy_Untreated_Microloading/2000 um:
./700 Series/731_L1,L2,L3_Healthy_Untreated_Microloading/2500 um:
./700 Series/731_L1,L2,L3_Healthy_Untreated_Microloading/3000 um:
./700 Series/731_L1,L2,L3_Healthy_Untreated_Microloading/3500 um:
./700 Series/731_L1,L2,L3_Healthy_Untreated_Microloading/4000 um:
./700 Series/732_L1,L2,L3_Healthy_Untreated_Microloading:
./700 Series/732_L1,L2,L3_Healthy_Untreated_Microloading/0 um:
./700 Series/732_L1,L2,L3_Healthy_Untreated_Microloading/1000 um:
./700 Series/732_L1,L2,L3_Healthy_Untreated_Microloading/1500 um:
./700 Series/732_L1,L2,L3_Healthy_Untreated_Microloading/2000 um:
./700 Series/732_L1,L2,L3_Healthy_Untreated_Microloading/2500 um:
./700 Series/732_L1,L2,L3_Healthy_Untreated_Microloading/3000 um:
./700 Series/732_L1,L2,L3_Healthy_Untreated_Microloading/3500 um:
./700 Series/732_L1,L2,L3_Healthy_Untreated_Microloading/4000 um:
./700 Series/733_L1,L2,L3_Healthy_Untreated_Microloading:
./700 Series/733_L1,L2,L3_Healthy_Untreated_Microloading/0 um:
./700 Series/733_L1,L2,L3_Healthy_Untreated_Microloading/1000 um:
./700 Series/733_L1,L2,L3_Healthy_Untreated_Microloading/1500 um:
./700 Series/733_L1,L2,L3_Healthy_Untreated_Microloading/2000 um:
./700 Series/733_L1,L2,L3_Healthy_Untreated_Microloading/2500 um:
./700 Series/733_L1,L2,L3_Healthy_Untreated_Microloading/3000 um:
./700 Series/733_L1,L2,L3_Healthy_Untreated_Microloading/3500 um:
./700 Series/733_L1,L2,L3_Healthy_Untreated_Microloading/4000 um:
./800 Series:
./800 Series/806_L1,L2,L3_ZR75_Untreated_Microloading:
./800 Series/806_L1,L2,L3_ZR75_Untreated_Microloading/00001402:
./800 Series/806_L1,L2,L3_ZR75_Untreated_Microloading/00001402/00002464-0um:
./800 Series/806_L1,L2,L3_ZR75_Untreated_Microloading/00001402/00002465-1000um:
./800 Series/806_L1,L2,L3_ZR75_Untreated_Microloading/00001402/00002466-1500um:
./800 Series/806_L1,L2,L3_ZR75_Untreated_Microloading/00001402/00002467-2000um:
./800 Series/806_L1,L2,L3_ZR75_Untreated_Microloading/00001402/00002468-2500um:
./800 Series/806_L1,L2,L3_ZR75_Untreated_Microloading/00001402/00002469-3000um:
./800 Series/806_L1,L2,L3_ZR75_Untreated_Microloading/00001402/00002470:
./800 Series/808_L1,L2,L3_ZR75_Untreated_Microloading:
./800 Series/808_L1,L2,L3_ZR75_Untreated_Microloading/00001422:
./800 Series/808_L1,L2,L3_ZR75_Untreated_Microloading/00001422/00002516.0um:
./800 Series/808_L1,L2,L3_ZR75_Untreated_Microloading/00001422/00002517.1000um:
./800 Series/808_L1,L2,L3_ZR75_Untreated_Microloading/00001422/00002518.1500um:
./800 Series/808_L1,L2,L3_ZR75_Untreated_Microloading/00001422/00002519.1500um:
./800 Series/808_L1,L2,L3_ZR75_Untreated_Microloading/00001422/00002520.2000um:
./800 Series/808_L1,L2,L3_ZR75_Untreated_Microloading/00001422/00002521.2500um:
./800 Series/809_L1,L2,L3_ZR75_Untreated_Microloading:
./800 Series/809_L1,L2,L3_ZR75_Untreated_Microloading/00001394:
./800 Series/809_L1,L2,L3_ZR75_Untreated_Microloading/00001394/00002435-1000um:
./800 Series/809_L1,L2,L3_ZR75_Untreated_Microloading/00001394/00002436-1500um:
./800 Series/809_L1,L2,L3_ZR75_Untreated_Microloading/00001394/00002437-2000um:
./800 Series/809_L1,L2,L3_ZR75_Untreated_Microloading/00001395:
./800 Series/809_L1,L2,L3_ZR75_Untreated_Microloading/00001395/00002434-0um:
./800 Series/810_L1,L2,L3_ZR75_Untreated_Microloading:
./800 Series/810_L1,L2,L3_ZR75_Untreated_Microloading/00001393:
./800 Series/810_L1,L2,L3_ZR75_Untreated_Microloading/00001393/00002429:
./800 Series/810_L1,L2,L3_ZR75_Untreated_Microloading/00001393/00002430-1000um:
./800 Series/810_L1,L2,L3_ZR75_Untreated_Microloading/00001393/00002431-1500um:
./800 Series/810_L1,L2,L3_ZR75_Untreated_Microloading/00001393/00002432-2000um:
./800 Series/810_L1,L2,L3_ZR75_Untreated_Microloading/00001393/00002433-2500um:
./800 Series/832_T13,L1,L2_ZR75_RFA_Microloading:
./800 Series/832_T13,L1,L2_ZR75_RFA_Microloading/00002567-0um (at 1000um at begining):
./800 Series/832_T13,L1,L2_ZR75_RFA_Microloading/00002568 - 500um (1500):
./800 Series/832_T13,L1,L2_ZR75_RFA_Microloading/00002569 - 1000um (2000):
./800 Series/832_T13,L1,L2_ZR75_RFA_Microloading/00002570 - 1500um (2500):
./800 Series/832_T13,L1,L2_ZR75_RFA_Microloading/00002571 - 2000um (3000):
./800 Series/832_T13,L1,L2_ZR75_RFA_Microloading/00002572 - 2500um (3500):
./800 Series/832_T13,L1,L2_ZR75_RFA_Microloading/00002573 - 3000um:
./800 Series/832_T13,L1,L2_ZR75_RFA_Microloading/00002574 - 3500.. went to 1800:
./800 Series/832_T13,L1,L2_ZR75_RFA_Microloading/00002575 - took out and scaned:
./800 Series/832_T13,L1,L2_ZR75_RFA_Microloading/ForceDisplacementCurves:
./800 Series/832_T13,L1,L2_ZR75_RFA_Microloading/Round2:
./800 Series/832_T13,L1,L2_ZR75_RFA_Microloading/Round2/00002600:
./800 Series/832_T13,L1,L2_ZR75_RFA_Microloading/Round2/00002601:
./800 Series/832_T13,L1,L2_ZR75_RFA_Microloading/Round2/00002602:
./800 Series/832_T13,L1,L2_ZR75_RFA_Microloading/Round2/00002603:
./800 Series/832_T13,L1,L2_ZR75_RFA_Microloading/Round2/00002604:
./800 Series/832_T13,L1,L2_ZR75_RFA_Microloading/Round2/00002605:
./800 Series/840_T13,L1,L2_ZR75_RFA_Microloading:
./800 Series/840_T13,L1,L2_ZR75_RFA_Microloading/00002733:
./800 Series/840_T13,L1,L2_ZR75_RFA_Microloading/00002734:
./800 Series/840_T13,L1,L2_ZR75_RFA_Microloading/00002735:
./800 Series/840_T13,L1,L2_ZR75_RFA_Microloading/00002736:
./800 Series/840_T13,L1,L2_ZR75_RFA_Microloading/00002737:
./800 Series/840_T13,L1,L2_ZR75_RFA_Microloading/00002738:
./900 Series:
./900 Series/912_L1,L2,L3_HELA_RT_Microloading:
./900 Series/912_L1,L2,L3_HELA_RT_Microloading/1500um:
./900 Series/912_L1,L2,L3_HELA_RT_Microloading/Failure:
./900 Series/912_L1,L2,L3_HELA_RT_Microloading/Unloaded:
./900 Series/913_L1,L2,L3_HELA_RT_Microloading:
./900 Series/913_L1,L2,L3_HELA_RT_Microloading/1500um:
./900 Series/913_L1,L2,L3_HELA_RT_Microloading/Failure:
./900 Series/913_L1,L2,L3_HELA_RT_Microloading/Unloaded:
./900 Series/914_L1,L2,L3_HELA_RT_Microloading:
./900 Series/914_L1,L2,L3_HELA_RT_Microloading/1500um:
./900 Series/914_L1,L2,L3_HELA_RT_Microloading/Failure:
./900 Series/914_L1,L2,L3_HELA_RT_Microloading/Unloaded:
./900 Series/915_L1,L2,L3_HELA_RT_Microloading:
./900 Series/915_L1,L2,L3_HELA_RT_Microloading/1500um:
./900 Series/915_L1,L2,L3_HELA_RT_Microloading/Failure:
./900 Series/915_L1,L2,L3_HELA_RT_Microloading/Unloaded:
./900 Series/916_L1,L2,L3_HELA_RT_Microloading:
./900 Series/916_L1,L2,L3_HELA_RT_Microloading/1500um:
./900 Series/916_L1,L2,L3_HELA_RT_Microloading/Failure:
./900 Series/916_L1,L2,L3_HELA_RT_Microloading/Unloaded:
./900 Series/917_L1,L2,L3_HELA_RT_Microloading:
./900 Series/917_L1,L2,L3_HELA_RT_Microloading/1500um:
./900 Series/917_L1,L2,L3_HELA_RT_Microloading/Failure:
./900 Series/917_L1,L2,L3_HELA_RT_Microloading/Unloaded:
./900 Series/924_L1,L2,L3_Healthy_RT_Microloading:
./900 Series/924_L1,L2,L3_Healthy_RT_Microloading/0um:
./900 Series/924_L1,L2,L3_Healthy_RT_Microloading/1500um:
./900 Series/924_L1,L2,L3_Healthy_RT_Microloading/Failure:
./900 Series/925_L1,L2,L3_Healthy_RT_Microloading:
./900 Series/925_L1,L2,L3_Healthy_RT_Microloading/0um:
./900 Series/925_L1,L2,L3_Healthy_RT_Microloading/1500um:
./900 Series/925_L1,L2,L3_Healthy_RT_Microloading/Failure:
./900 Series/926_L1,L2,L3_Healthy_RT_Microloading:
./900 Series/926_L1,L2,L3_Healthy_RT_Microloading/0um:
./900 Series/926_L1,L2,L3_Healthy_RT_Microloading/1500um:
./900 Series/926_L1,L2,L3_Healthy_RT_Microloading/Failure:
./900 Series/927_L1,L2,L3_Healthy_RT_Microloading:
./900 Series/927_L1,L2,L3_Healthy_RT_Microloading/0um:
./900 Series/927_L1,L2,L3_Healthy_RT_Microloading/1500um:
./900 Series/927_L1,L2,L3_Healthy_RT_Microloading/Failure:
./900 Series/928_L1,L2,L3_Healthy_RT_Microloading:
./900 Series/928_L1,L2,L3_Healthy_RT_Microloading/0um:
./900 Series/928_L1,L2,L3_Healthy_RT_Microloading/1500um:
./900 Series/928_L1,L2,L3_Healthy_RT_Microloading/Failure:
./900 Series/929_L1,L2,L3_Healthy_RT_Microloading:
./900 Series/929_L1,L2,L3_Healthy_RT_Microloading/0um:
./900 Series/929_L1,L2,L3_Healthy_RT_Microloading/1500um:
./900 Series/929_L1,L2,L3_Healthy_RT_Microloading/Failure:
./_OTN7Y~L:
